"Item Number","Title","Origination Date","Description","Priority","Impact","Mitigation Description","Due Date","Completion Date","Status","Assigned To","Attachments"
"1","Lessons from Original CTS Implementation","Thu Aug 16 00:00:00 MDT 2012","AAAS was not involved adequately during the iteration planning process when the first attempt of implementing CTS occurred.","Low","Priorities for the AAAS business users (CTS) were focused on during prior development iterations.","Zia will develop a PMP that documents the functional and technical requirements of the CTS Phase 1 project. User stories will then be developed for the 6 iterations.","","","Closed","eharper",""
"2","IT Involvement","Thu Aug 16 00:00:00 MDT 2012","Original deployment of CTS did not adequately involve AAAS IT staff in the architectural design.","Low","","Zia will involve AAAS IT team and mutually develop a CTS design that AAAS will be able to support and that meets supported infrastructure requirements from the required applications.

Also need to make sure this is involves Michael, Boris and John.","","","Open","claurin",""
"3","Active Directory dependency","Thu Oct 04 00:00:00 MDT 2012","A test Active Directory server is needed for development and testing of Sprint 1 functionality.","Medium","Without this server, additional effort will required to stub out an LDAP server for development and testing purposes","AAAS IT will work to deliver a working AD server with no customizations by 12-Oct-2012","Fri Oct 12 00:00:00 MDT 2012","Fri Oct 12 00:00:00 MDT 2012","Closed","michael_savelli",""
"4","Production Process metadata","Fri Oct 12 00:00:00 MDT 2012","The requirements and phase 1 scope for production related metadata definition and process for capturing.  The Core team needs to designate who will define the requirements and what part is implemented for phase 1","Medium","","","Fri Oct 19 00:00:00 MDT 2012","Mon Oct 22 00:00:00 MDT 2012","Closed","michael_savelli",""
"5","DPP Architecture","Fri Oct 12 00:00:00 MDT 2012","The long-term vision for the DPP architecture is not within Zia's current scope, but it is in everyone's interest for Zia to be somewhat involved in this.  Recently this has taken a larger amount of time and is impacting progress on Sprint 1","High","Sprint 1 task completion somewhat delayed","Clearly define what Zia's role is in the overall DPP architecture/design and determine whether this can be contained in current scope

Closing as PCR has been produced.","Fri Oct 19 00:00:00 MDT 2012","","Closed","michael_savelli",""
"6","AAAS Core Team leadership","Wed Jan 23 00:00:00 MST 2013","Brooks Hanson's imminent departure from AAAS may result in a vacuum of leadership from a business process/requirements perspective.","High","Brooks has provided the business direction for the CTS project.  There is no one individual that can replace him, and so decisions and feedback are expected to require more time to make and provide.","","Fri Feb 01 00:00:00 MST 2013","","Open","michael_savelli",""
